^C:\dev\conan\conan-center-index\recipes\libiconv\all\test_package\build\5f446fcd9544fbde1a47935a65e0ef59cbda361c\test_package.vcxproj
C:\dev\conan\conan-center-index\recipes\libiconv\all\test_package\build\5f446fcd9544fbde1a47935a65e0ef59cbda361c\lib\test_package.lib
C:\dev\conan\conan-center-index\recipes\libiconv\all\test_package\build\5f446fcd9544fbde1a47935a65e0ef59cbda361c\lib\test_package.exp
