^C:\DEV\CONAN\CONAN-CENTER-INDEX\RECIPES\LIBICONV\ALL\TEST_PACKAGE\CMAKELISTS.TXT
C:\PROGRAM FILES (X86)\MICROSOFT VISUAL STUDIO\2019\COMMUNITY\COMMON7\IDE\COMMONEXTENSIONS\MICROSOFT\CMAKE\CMAKE\SHARE\CMAKE-3.16\MODULES\CMAKECCOMPILER.CMAKE.IN
C:\PROGRAM FILES (X86)\MICROSOFT VISUAL STUDIO\2019\COMMUNITY\COMMON7\IDE\COMMONEXTENSIONS\MICROSOFT\CMAKE\CMAKE\SHARE\CMAKE-3.16\MODULES\CMAKECCOMPILERABI.C
C:\PROGRAM FILES (X86)\MICROSOFT VISUAL STUDIO\2019\COMMUNITY\COMMON7\IDE\COMMONEXTENSIONS\MICROSOFT\CMAKE\CMAKE\SHARE\CMAKE-3.16\MODULES\CMAKECINFORMATION.CMAKE
C:\PROGRAM FILES (X86)\MICROSOFT VISUAL STUDIO\2019\COMMUNITY\COMMON7\IDE\COMMONEXTENSIONS\MICROSOFT\CMAKE\CMAKE\SHARE\CMAKE-3.16\MODULES\CMAKECXXCOMPILER.CMAKE.IN
C:\PROGRAM FILES (X86)\MICROSOFT VISUAL STUDIO\2019\COMMUNITY\COMMON7\IDE\COMMONEXTENSIONS\MICROSOFT\CMAKE\CMAKE\SHARE\CMAKE-3.16\MODULES\CMAKECXXCOMPILERABI.CPP
C:\PROGRAM FILES (X86)\MICROSOFT VISUAL STUDIO\2019\COMMUNITY\COMMON7\IDE\COMMONEXTENSIONS\MICROSOFT\CMAKE\CMAKE\SHARE\CMAKE-3.16\MODULES\CMAKECXXINFORMATION.CMAKE
C:\PROGRAM FILES (X86)\MICROSOFT VISUAL STUDIO\2019\COMMUNITY\COMMON7\IDE\COMMONEXTENSIONS\MICROSOFT\CMAKE\CMAKE\SHARE\CMAKE-3.16\MODULES\CMAKECOMMONLANGUAGEINCLUDE.CMAKE
C:\PROGRAM FILES (X86)\MICROSOFT VISUAL STUDIO\2019\COMMUNITY\COMMON7\IDE\COMMONEXTENSIONS\MICROSOFT\CMAKE\CMAKE\SHARE\CMAKE-3.16\MODULES\CMAKECOMPILERIDDETECTION.CMAKE
C:\PROGRAM FILES (X86)\MICROSOFT VISUAL STUDIO\2019\COMMUNITY\COMMON7\IDE\COMMONEXTENSIONS\MICROSOFT\CMAKE\CMAKE\SHARE\CMAKE-3.16\MODULES\CMAKEDETERMINECCOMPILER.CMAKE
C:\PROGRAM FILES (X86)\MICROSOFT VISUAL STUDIO\2019\COMMUNITY\COMMON7\IDE\COMMONEXTENSIONS\MICROSOFT\CMAKE\CMAKE\SHARE\CMAKE-3.16\MODULES\CMAKEDETERMINECXXCOMPILER.CMAKE
C:\PROGRAM FILES (X86)\MICROSOFT VISUAL STUDIO\2019\COMMUNITY\COMMON7\IDE\COMMONEXTENSIONS\MICROSOFT\CMAKE\CMAKE\SHARE\CMAKE-3.16\MODULES\CMAKEDETERMINECOMPILEFEATURES.CMAKE
C:\PROGRAM FILES (X86)\MICROSOFT VISUAL STUDIO\2019\COMMUNITY\COMMON7\IDE\COMMONEXTENSIONS\MICROSOFT\CMAKE\CMAKE\SHARE\CMAKE-3.16\MODULES\CMAKEDETERMINECOMPILER.CMAKE
C:\PROGRAM FILES (X86)\MICROSOFT VISUAL STUDIO\2019\COMMUNITY\COMMON7\IDE\COMMONEXTENSIONS\MICROSOFT\CMAKE\CMAKE\SHARE\CMAKE-3.16\MODULES\CMAKEDETERMINECOMPILERABI.CMAKE
C:\PROGRAM FILES (X86)\MICROSOFT VISUAL STUDIO\2019\COMMUNITY\COMMON7\IDE\COMMONEXTENSIONS\MICROSOFT\CMAKE\CMAKE\SHARE\CMAKE-3.16\MODULES\CMAKEDETERMINECOMPILERID.CMAKE
C:\PROGRAM FILES (X86)\MICROSOFT VISUAL STUDIO\2019\COMMUNITY\COMMON7\IDE\COMMONEXTENSIONS\MICROSOFT\CMAKE\CMAKE\SHARE\CMAKE-3.16\MODULES\CMAKEDETERMINERCCOMPILER.CMAKE
C:\PROGRAM FILES (X86)\MICROSOFT VISUAL STUDIO\2019\COMMUNITY\COMMON7\IDE\COMMONEXTENSIONS\MICROSOFT\CMAKE\CMAKE\SHARE\CMAKE-3.16\MODULES\CMAKEDETERMINESYSTEM.CMAKE
C:\PROGRAM FILES (X86)\MICROSOFT VISUAL STUDIO\2019\COMMUNITY\COMMON7\IDE\COMMONEXTENSIONS\MICROSOFT\CMAKE\CMAKE\SHARE\CMAKE-3.16\MODULES\CMAKEFINDBINUTILS.CMAKE
C:\PROGRAM FILES (X86)\MICROSOFT VISUAL STUDIO\2019\COMMUNITY\COMMON7\IDE\COMMONEXTENSIONS\MICROSOFT\CMAKE\CMAKE\SHARE\CMAKE-3.16\MODULES\CMAKEGENERICSYSTEM.CMAKE
C:\PROGRAM FILES (X86)\MICROSOFT VISUAL STUDIO\2019\COMMUNITY\COMMON7\IDE\COMMONEXTENSIONS\MICROSOFT\CMAKE\CMAKE\SHARE\CMAKE-3.16\MODULES\CMAKEINITIALIZECONFIGS.CMAKE
C:\PROGRAM FILES (X86)\MICROSOFT VISUAL STUDIO\2019\COMMUNITY\COMMON7\IDE\COMMONEXTENSIONS\MICROSOFT\CMAKE\CMAKE\SHARE\CMAKE-3.16\MODULES\CMAKELANGUAGEINFORMATION.CMAKE
C:\PROGRAM FILES (X86)\MICROSOFT VISUAL STUDIO\2019\COMMUNITY\COMMON7\IDE\COMMONEXTENSIONS\MICROSOFT\CMAKE\CMAKE\SHARE\CMAKE-3.16\MODULES\CMAKEPARSEARGUMENTS.CMAKE
C:\PROGRAM FILES (X86)\MICROSOFT VISUAL STUDIO\2019\COMMUNITY\COMMON7\IDE\COMMONEXTENSIONS\MICROSOFT\CMAKE\CMAKE\SHARE\CMAKE-3.16\MODULES\CMAKEPARSEIMPLICITINCLUDEINFO.CMAKE
C:\PROGRAM FILES (X86)\MICROSOFT VISUAL STUDIO\2019\COMMUNITY\COMMON7\IDE\COMMONEXTENSIONS\MICROSOFT\CMAKE\CMAKE\SHARE\CMAKE-3.16\MODULES\CMAKEPARSEIMPLICITLINKINFO.CMAKE
C:\PROGRAM FILES (X86)\MICROSOFT VISUAL STUDIO\2019\COMMUNITY\COMMON7\IDE\COMMONEXTENSIONS\MICROSOFT\CMAKE\CMAKE\SHARE\CMAKE-3.16\MODULES\CMAKERCCOMPILER.CMAKE.IN
C:\PROGRAM FILES (X86)\MICROSOFT VISUAL STUDIO\2019\COMMUNITY\COMMON7\IDE\COMMONEXTENSIONS\MICROSOFT\CMAKE\CMAKE\SHARE\CMAKE-3.16\MODULES\CMAKERCINFORMATION.CMAKE
C:\PROGRAM FILES (X86)\MICROSOFT VISUAL STUDIO\2019\COMMUNITY\COMMON7\IDE\COMMONEXTENSIONS\MICROSOFT\CMAKE\CMAKE\SHARE\CMAKE-3.16\MODULES\CMAKESYSTEM.CMAKE.IN
C:\PROGRAM FILES (X86)\MICROSOFT VISUAL STUDIO\2019\COMMUNITY\COMMON7\IDE\COMMONEXTENSIONS\MICROSOFT\CMAKE\CMAKE\SHARE\CMAKE-3.16\MODULES\CMAKESYSTEMSPECIFICINFORMATION.CMAKE
C:\PROGRAM FILES (X86)\MICROSOFT VISUAL STUDIO\2019\COMMUNITY\COMMON7\IDE\COMMONEXTENSIONS\MICROSOFT\CMAKE\CMAKE\SHARE\CMAKE-3.16\MODULES\CMAKESYSTEMSPECIFICINITIALIZE.CMAKE
C:\PROGRAM FILES (X86)\MICROSOFT VISUAL STUDIO\2019\COMMUNITY\COMMON7\IDE\COMMONEXTENSIONS\MICROSOFT\CMAKE\CMAKE\SHARE\CMAKE-3.16\MODULES\CMAKETESTCCOMPILER.CMAKE
C:\PROGRAM FILES (X86)\MICROSOFT VISUAL STUDIO\2019\COMMUNITY\COMMON7\IDE\COMMONEXTENSIONS\MICROSOFT\CMAKE\CMAKE\SHARE\CMAKE-3.16\MODULES\CMAKETESTCXXCOMPILER.CMAKE
C:\PROGRAM FILES (X86)\MICROSOFT VISUAL STUDIO\2019\COMMUNITY\COMMON7\IDE\COMMONEXTENSIONS\MICROSOFT\CMAKE\CMAKE\SHARE\CMAKE-3.16\MODULES\CMAKETESTCOMPILERCOMMON.CMAKE
C:\PROGRAM FILES (X86)\MICROSOFT VISUAL STUDIO\2019\COMMUNITY\COMMON7\IDE\COMMONEXTENSIONS\MICROSOFT\CMAKE\CMAKE\SHARE\CMAKE-3.16\MODULES\CMAKETESTRCCOMPILER.CMAKE
C:\PROGRAM FILES (X86)\MICROSOFT VISUAL STUDIO\2019\COMMUNITY\COMMON7\IDE\COMMONEXTENSIONS\MICROSOFT\CMAKE\CMAKE\SHARE\CMAKE-3.16\MODULES\COMPILER\ADSP-DETERMINECOMPILER.CMAKE
C:\PROGRAM FILES (X86)\MICROSOFT VISUAL STUDIO\2019\COMMUNITY\COMMON7\IDE\COMMONEXTENSIONS\MICROSOFT\CMAKE\CMAKE\SHARE\CMAKE-3.16\MODULES\COMPILER\ARMCC-DETERMINECOMPILER.CMAKE
C:\PROGRAM FILES (X86)\MICROSOFT VISUAL STUDIO\2019\COMMUNITY\COMMON7\IDE\COMMONEXTENSIONS\MICROSOFT\CMAKE\CMAKE\SHARE\CMAKE-3.16\MODULES\COMPILER\ARMCLANG-DETERMINECOMPILER.CMAKE
C:\PROGRAM FILES (X86)\MICROSOFT VISUAL STUDIO\2019\COMMUNITY\COMMON7\IDE\COMMONEXTENSIONS\MICROSOFT\CMAKE\CMAKE\SHARE\CMAKE-3.16\MODULES\COMPILER\APPLECLANG-DETERMINECOMPILER.CMAKE
C:\PROGRAM FILES (X86)\MICROSOFT VISUAL STUDIO\2019\COMMUNITY\COMMON7\IDE\COMMONEXTENSIONS\MICROSOFT\CMAKE\CMAKE\SHARE\CMAKE-3.16\MODULES\COMPILER\BORLAND-DETERMINECOMPILER.CMAKE
C:\PROGRAM FILES (X86)\MICROSOFT VISUAL STUDIO\2019\COMMUNITY\COMMON7\IDE\COMMONEXTENSIONS\MICROSOFT\CMAKE\CMAKE\SHARE\CMAKE-3.16\MODULES\COMPILER\BRUCE-C-DETERMINECOMPILER.CMAKE
C:\PROGRAM FILES (X86)\MICROSOFT VISUAL STUDIO\2019\COMMUNITY\COMMON7\IDE\COMMONEXTENSIONS\MICROSOFT\CMAKE\CMAKE\SHARE\CMAKE-3.16\MODULES\COMPILER\CMAKECOMMONCOMPILERMACROS.CMAKE
C:\PROGRAM FILES (X86)\MICROSOFT VISUAL STUDIO\2019\COMMUNITY\COMMON7\IDE\COMMONEXTENSIONS\MICROSOFT\CMAKE\CMAKE\SHARE\CMAKE-3.16\MODULES\COMPILER\CLANG-DETERMINECOMPILER.CMAKE
C:\PROGRAM FILES (X86)\MICROSOFT VISUAL STUDIO\2019\COMMUNITY\COMMON7\IDE\COMMONEXTENSIONS\MICROSOFT\CMAKE\CMAKE\SHARE\CMAKE-3.16\MODULES\COMPILER\CLANG-DETERMINECOMPILERINTERNAL.CMAKE
C:\PROGRAM FILES (X86)\MICROSOFT VISUAL STUDIO\2019\COMMUNITY\COMMON7\IDE\COMMONEXTENSIONS\MICROSOFT\CMAKE\CMAKE\SHARE\CMAKE-3.16\MODULES\COMPILER\COMEAU-CXX-DETERMINECOMPILER.CMAKE
C:\PROGRAM FILES (X86)\MICROSOFT VISUAL STUDIO\2019\COMMUNITY\COMMON7\IDE\COMMONEXTENSIONS\MICROSOFT\CMAKE\CMAKE\SHARE\CMAKE-3.16\MODULES\COMPILER\COMPAQ-C-DETERMINECOMPILER.CMAKE
C:\PROGRAM FILES (X86)\MICROSOFT VISUAL STUDIO\2019\COMMUNITY\COMMON7\IDE\COMMONEXTENSIONS\MICROSOFT\CMAKE\CMAKE\SHARE\CMAKE-3.16\MODULES\COMPILER\COMPAQ-CXX-DETERMINECOMPILER.CMAKE
C:\PROGRAM FILES (X86)\MICROSOFT VISUAL STUDIO\2019\COMMUNITY\COMMON7\IDE\COMMONEXTENSIONS\MICROSOFT\CMAKE\CMAKE\SHARE\CMAKE-3.16\MODULES\COMPILER\CRAY-DETERMINECOMPILER.CMAKE
C:\PROGRAM FILES (X86)\MICROSOFT VISUAL STUDIO\2019\COMMUNITY\COMMON7\IDE\COMMONEXTENSIONS\MICROSOFT\CMAKE\CMAKE\SHARE\CMAKE-3.16\MODULES\COMPILER\EMBARCADERO-DETERMINECOMPILER.CMAKE
C:\PROGRAM FILES (X86)\MICROSOFT VISUAL STUDIO\2019\COMMUNITY\COMMON7\IDE\COMMONEXTENSIONS\MICROSOFT\CMAKE\CMAKE\SHARE\CMAKE-3.16\MODULES\COMPILER\FUJITSU-DETERMINECOMPILER.CMAKE
C:\PROGRAM FILES (X86)\MICROSOFT VISUAL STUDIO\2019\COMMUNITY\COMMON7\IDE\COMMONEXTENSIONS\MICROSOFT\CMAKE\CMAKE\SHARE\CMAKE-3.16\MODULES\COMPILER\GHS-DETERMINECOMPILER.CMAKE
C:\PROGRAM FILES (X86)\MICROSOFT VISUAL STUDIO\2019\COMMUNITY\COMMON7\IDE\COMMONEXTENSIONS\MICROSOFT\CMAKE\CMAKE\SHARE\CMAKE-3.16\MODULES\COMPILER\GNU-C-DETERMINECOMPILER.CMAKE
C:\PROGRAM FILES (X86)\MICROSOFT VISUAL STUDIO\2019\COMMUNITY\COMMON7\IDE\COMMONEXTENSIONS\MICROSOFT\CMAKE\CMAKE\SHARE\CMAKE-3.16\MODULES\COMPILER\GNU-CXX-DETERMINECOMPILER.CMAKE
C:\PROGRAM FILES (X86)\MICROSOFT VISUAL STUDIO\2019\COMMUNITY\COMMON7\IDE\COMMONEXTENSIONS\MICROSOFT\CMAKE\CMAKE\SHARE\CMAKE-3.16\MODULES\COMPILER\HP-C-DETERMINECOMPILER.CMAKE
C:\PROGRAM FILES (X86)\MICROSOFT VISUAL STUDIO\2019\COMMUNITY\COMMON7\IDE\COMMONEXTENSIONS\MICROSOFT\CMAKE\CMAKE\SHARE\CMAKE-3.16\MODULES\COMPILER\HP-CXX-DETERMINECOMPILER.CMAKE
C:\PROGRAM FILES (X86)\MICROSOFT VISUAL STUDIO\2019\COMMUNITY\COMMON7\IDE\COMMONEXTENSIONS\MICROSOFT\CMAKE\CMAKE\SHARE\CMAKE-3.16\MODULES\COMPILER\IAR-DETERMINECOMPILER.CMAKE
C:\PROGRAM FILES (X86)\MICROSOFT VISUAL STUDIO\2019\COMMUNITY\COMMON7\IDE\COMMONEXTENSIONS\MICROSOFT\CMAKE\CMAKE\SHARE\CMAKE-3.16\MODULES\COMPILER\IBMCPP-C-DETERMINEVERSIONINTERNAL.CMAKE
C:\PROGRAM FILES (X86)\MICROSOFT VISUAL STUDIO\2019\COMMUNITY\COMMON7\IDE\COMMONEXTENSIONS\MICROSOFT\CMAKE\CMAKE\SHARE\CMAKE-3.16\MODULES\COMPILER\IBMCPP-CXX-DETERMINEVERSIONINTERNAL.CMAKE
C:\PROGRAM FILES (X86)\MICROSOFT VISUAL STUDIO\2019\COMMUNITY\COMMON7\IDE\COMMONEXTENSIONS\MICROSOFT\CMAKE\CMAKE\SHARE\CMAKE-3.16\MODULES\COMPILER\INTEL-DETERMINECOMPILER.CMAKE
C:\PROGRAM FILES (X86)\MICROSOFT VISUAL STUDIO\2019\COMMUNITY\COMMON7\IDE\COMMONEXTENSIONS\MICROSOFT\CMAKE\CMAKE\SHARE\CMAKE-3.16\MODULES\COMPILER\MSVC-C.CMAKE
C:\PROGRAM FILES (X86)\MICROSOFT VISUAL STUDIO\2019\COMMUNITY\COMMON7\IDE\COMMONEXTENSIONS\MICROSOFT\CMAKE\CMAKE\SHARE\CMAKE-3.16\MODULES\COMPILER\MSVC-CXX.CMAKE
C:\PROGRAM FILES (X86)\MICROSOFT VISUAL STUDIO\2019\COMMUNITY\COMMON7\IDE\COMMONEXTENSIONS\MICROSOFT\CMAKE\CMAKE\SHARE\CMAKE-3.16\MODULES\COMPILER\MSVC-DETERMINECOMPILER.CMAKE
C:\PROGRAM FILES (X86)\MICROSOFT VISUAL STUDIO\2019\COMMUNITY\COMMON7\IDE\COMMONEXTENSIONS\MICROSOFT\CMAKE\CMAKE\SHARE\CMAKE-3.16\MODULES\COMPILER\NVIDIA-DETERMINECOMPILER.CMAKE
C:\PROGRAM FILES (X86)\MICROSOFT VISUAL STUDIO\2019\COMMUNITY\COMMON7\IDE\COMMONEXTENSIONS\MICROSOFT\CMAKE\CMAKE\SHARE\CMAKE-3.16\MODULES\COMPILER\OPENWATCOM-DETERMINECOMPILER.CMAKE
C:\PROGRAM FILES (X86)\MICROSOFT VISUAL STUDIO\2019\COMMUNITY\COMMON7\IDE\COMMONEXTENSIONS\MICROSOFT\CMAKE\CMAKE\SHARE\CMAKE-3.16\MODULES\COMPILER\PGI-DETERMINECOMPILER.CMAKE
C:\PROGRAM FILES (X86)\MICROSOFT VISUAL STUDIO\2019\COMMUNITY\COMMON7\IDE\COMMONEXTENSIONS\MICROSOFT\CMAKE\CMAKE\SHARE\CMAKE-3.16\MODULES\COMPILER\PATHSCALE-DETERMINECOMPILER.CMAKE
C:\PROGRAM FILES (X86)\MICROSOFT VISUAL STUDIO\2019\COMMUNITY\COMMON7\IDE\COMMONEXTENSIONS\MICROSOFT\CMAKE\CMAKE\SHARE\CMAKE-3.16\MODULES\COMPILER\SCO-DETERMINECOMPILER.CMAKE
C:\PROGRAM FILES (X86)\MICROSOFT VISUAL STUDIO\2019\COMMUNITY\COMMON7\IDE\COMMONEXTENSIONS\MICROSOFT\CMAKE\CMAKE\SHARE\CMAKE-3.16\MODULES\COMPILER\SDCC-C-DETERMINECOMPILER.CMAKE
C:\PROGRAM FILES (X86)\MICROSOFT VISUAL STUDIO\2019\COMMUNITY\COMMON7\IDE\COMMONEXTENSIONS\MICROSOFT\CMAKE\CMAKE\SHARE\CMAKE-3.16\MODULES\COMPILER\SUNPRO-C-DETERMINECOMPILER.CMAKE
C:\PROGRAM FILES (X86)\MICROSOFT VISUAL STUDIO\2019\COMMUNITY\COMMON7\IDE\COMMONEXTENSIONS\MICROSOFT\CMAKE\CMAKE\SHARE\CMAKE-3.16\MODULES\COMPILER\SUNPRO-CXX-DETERMINECOMPILER.CMAKE
C:\PROGRAM FILES (X86)\MICROSOFT VISUAL STUDIO\2019\COMMUNITY\COMMON7\IDE\COMMONEXTENSIONS\MICROSOFT\CMAKE\CMAKE\SHARE\CMAKE-3.16\MODULES\COMPILER\TI-DETERMINECOMPILER.CMAKE
C:\PROGRAM FILES (X86)\MICROSOFT VISUAL STUDIO\2019\COMMUNITY\COMMON7\IDE\COMMONEXTENSIONS\MICROSOFT\CMAKE\CMAKE\SHARE\CMAKE-3.16\MODULES\COMPILER\TINYCC-C-DETERMINECOMPILER.CMAKE
C:\PROGRAM FILES (X86)\MICROSOFT VISUAL STUDIO\2019\COMMUNITY\COMMON7\IDE\COMMONEXTENSIONS\MICROSOFT\CMAKE\CMAKE\SHARE\CMAKE-3.16\MODULES\COMPILER\VISUALAGE-C-DETERMINECOMPILER.CMAKE
C:\PROGRAM FILES (X86)\MICROSOFT VISUAL STUDIO\2019\COMMUNITY\COMMON7\IDE\COMMONEXTENSIONS\MICROSOFT\CMAKE\CMAKE\SHARE\CMAKE-3.16\MODULES\COMPILER\VISUALAGE-CXX-DETERMINECOMPILER.CMAKE
C:\PROGRAM FILES (X86)\MICROSOFT VISUAL STUDIO\2019\COMMUNITY\COMMON7\IDE\COMMONEXTENSIONS\MICROSOFT\CMAKE\CMAKE\SHARE\CMAKE-3.16\MODULES\COMPILER\WATCOM-DETERMINECOMPILER.CMAKE
C:\PROGRAM FILES (X86)\MICROSOFT VISUAL STUDIO\2019\COMMUNITY\COMMON7\IDE\COMMONEXTENSIONS\MICROSOFT\CMAKE\CMAKE\SHARE\CMAKE-3.16\MODULES\COMPILER\XL-C-DETERMINECOMPILER.CMAKE
C:\PROGRAM FILES (X86)\MICROSOFT VISUAL STUDIO\2019\COMMUNITY\COMMON7\IDE\COMMONEXTENSIONS\MICROSOFT\CMAKE\CMAKE\SHARE\CMAKE-3.16\MODULES\COMPILER\XL-CXX-DETERMINECOMPILER.CMAKE
C:\PROGRAM FILES (X86)\MICROSOFT VISUAL STUDIO\2019\COMMUNITY\COMMON7\IDE\COMMONEXTENSIONS\MICROSOFT\CMAKE\CMAKE\SHARE\CMAKE-3.16\MODULES\COMPILER\XLCLANG-C-DETERMINECOMPILER.CMAKE
C:\PROGRAM FILES (X86)\MICROSOFT VISUAL STUDIO\2019\COMMUNITY\COMMON7\IDE\COMMONEXTENSIONS\MICROSOFT\CMAKE\CMAKE\SHARE\CMAKE-3.16\MODULES\COMPILER\XLCLANG-CXX-DETERMINECOMPILER.CMAKE
C:\PROGRAM FILES (X86)\MICROSOFT VISUAL STUDIO\2019\COMMUNITY\COMMON7\IDE\COMMONEXTENSIONS\MICROSOFT\CMAKE\CMAKE\SHARE\CMAKE-3.16\MODULES\COMPILER\ZOS-C-DETERMINECOMPILER.CMAKE
C:\PROGRAM FILES (X86)\MICROSOFT VISUAL STUDIO\2019\COMMUNITY\COMMON7\IDE\COMMONEXTENSIONS\MICROSOFT\CMAKE\CMAKE\SHARE\CMAKE-3.16\MODULES\COMPILER\ZOS-CXX-DETERMINECOMPILER.CMAKE
C:\PROGRAM FILES (X86)\MICROSOFT VISUAL STUDIO\2019\COMMUNITY\COMMON7\IDE\COMMONEXTENSIONS\MICROSOFT\CMAKE\CMAKE\SHARE\CMAKE-3.16\MODULES\COMPILERID\VS-10.VCXPROJ.IN
C:\PROGRAM FILES (X86)\MICROSOFT VISUAL STUDIO\2019\COMMUNITY\COMMON7\IDE\COMMONEXTENSIONS\MICROSOFT\CMAKE\CMAKE\SHARE\CMAKE-3.16\MODULES\INTERNAL\FEATURETESTING.CMAKE
C:\PROGRAM FILES (X86)\MICROSOFT VISUAL STUDIO\2019\COMMUNITY\COMMON7\IDE\COMMONEXTENSIONS\MICROSOFT\CMAKE\CMAKE\SHARE\CMAKE-3.16\MODULES\PLATFORM\WINDOWS-DETERMINE-CXX.CMAKE
C:\PROGRAM FILES (X86)\MICROSOFT VISUAL STUDIO\2019\COMMUNITY\COMMON7\IDE\COMMONEXTENSIONS\MICROSOFT\CMAKE\CMAKE\SHARE\CMAKE-3.16\MODULES\PLATFORM\WINDOWS-MSVC-C.CMAKE
C:\PROGRAM FILES (X86)\MICROSOFT VISUAL STUDIO\2019\COMMUNITY\COMMON7\IDE\COMMONEXTENSIONS\MICROSOFT\CMAKE\CMAKE\SHARE\CMAKE-3.16\MODULES\PLATFORM\WINDOWS-MSVC-CXX.CMAKE
C:\PROGRAM FILES (X86)\MICROSOFT VISUAL STUDIO\2019\COMMUNITY\COMMON7\IDE\COMMONEXTENSIONS\MICROSOFT\CMAKE\CMAKE\SHARE\CMAKE-3.16\MODULES\PLATFORM\WINDOWS-MSVC.CMAKE
C:\PROGRAM FILES (X86)\MICROSOFT VISUAL STUDIO\2019\COMMUNITY\COMMON7\IDE\COMMONEXTENSIONS\MICROSOFT\CMAKE\CMAKE\SHARE\CMAKE-3.16\MODULES\PLATFORM\WINDOWS.CMAKE
C:\PROGRAM FILES (X86)\MICROSOFT VISUAL STUDIO\2019\COMMUNITY\COMMON7\IDE\COMMONEXTENSIONS\MICROSOFT\CMAKE\CMAKE\SHARE\CMAKE-3.16\MODULES\PLATFORM\WINDOWSPATHS.CMAKE
C:\DEV\CONAN\CONAN-CENTER-INDEX\RECIPES\LIBICONV\ALL\TEST_PACKAGE\BUILD\5F446FCD9544FBDE1A47935A65E0EF59CBDA361C\CMAKEFILES\3.16.19112601-MSVC_2\CMAKECCOMPILER.CMAKE
C:\DEV\CONAN\CONAN-CENTER-INDEX\RECIPES\LIBICONV\ALL\TEST_PACKAGE\BUILD\5F446FCD9544FBDE1A47935A65E0EF59CBDA361C\CMAKEFILES\3.16.19112601-MSVC_2\CMAKECXXCOMPILER.CMAKE
C:\DEV\CONAN\CONAN-CENTER-INDEX\RECIPES\LIBICONV\ALL\TEST_PACKAGE\BUILD\5F446FCD9544FBDE1A47935A65E0EF59CBDA361C\CMAKEFILES\3.16.19112601-MSVC_2\CMAKERCCOMPILER.CMAKE
C:\DEV\CONAN\CONAN-CENTER-INDEX\RECIPES\LIBICONV\ALL\TEST_PACKAGE\BUILD\5F446FCD9544FBDE1A47935A65E0EF59CBDA361C\CMAKEFILES\3.16.19112601-MSVC_2\CMAKESYSTEM.CMAKE
C:\DEV\CONAN\CONAN-CENTER-INDEX\RECIPES\LIBICONV\ALL\TEST_PACKAGE\BUILD\5F446FCD9544FBDE1A47935A65E0EF59CBDA361C\CONANBUILDINFO.CMAKE
